Multivariate - K-means
…
library(tidyverse)
library(ggcorrplot)
library(broom)
library(car)
library(factoextra)
library(ggpmisc)

weather <- read_csv("../data/weather_monthsum.csv")

weather

# A tibble: 698 × 75
   site     year strength_gtex mean_dayl.s_Jan mean_srad.wm2_Jan mean_tmax.c_Jan
   <chr>   <dbl>         <dbl>           <dbl>             <dbl>           <dbl>
 1 Altus,…  1980          25.3          35873.              242.            10.2
 2 Altus,…  1982          26.9          35873.              271.            12.6
 3 Altus,…  1983          28.6          35873.              245.             9.9
 4 Altus,…  1984          28.2          35873.              277.            10.3
 5 Altus,…  1985          29.8          35873.              270.             8.1
 6 Altus,…  1986          29            35873.              284.            16.3
 7 Altus,…  1987          27.4          35873.              271.             9  
 8 Altus,…  1988          25.4          35873.              287.             8.1
 9 Altus,…  1990          29.6          35873.              272.            15.8
10 Altus,…  1993          28.1          35873.              263.             7.3
# ℹ 688 more rows
# ℹ 69 more variables: mean_tmin.c_Jan <dbl>, mean_vp.pa_Jan <dbl>,
#   sum_prcp.mm_Jan <dbl>, mean_dayl.s_Feb <dbl>, mean_srad.wm2_Feb <dbl>,
#   mean_tmax.c_Feb <dbl>, mean_tmin.c_Feb <dbl>, mean_vp.pa_Feb <dbl>,
#   sum_prcp.mm_Feb <dbl>, mean_dayl.s_Mar <dbl>, mean_srad.wm2_Mar <dbl>,
#   mean_tmax.c_Mar <dbl>, mean_tmin.c_Mar <dbl>, mean_vp.pa_Mar <dbl>,
#   sum_prcp.mm_Mar <dbl>, mean_dayl.s_Apr <dbl>, mean_srad.wm2_Apr <dbl>, …

Since k-means only take numerical variables, let’s select them now.

weather_n <- weather %>%
  dplyr::select(-c(site:strength_gtex))

weather_n

# A tibble: 698 × 72
   mean_dayl.s_Jan mean_srad.wm2_Jan mean_tmax.c_Jan mean_tmin.c_Jan
             <dbl>             <dbl>           <dbl>           <dbl>
 1          35873.              242.            10.2            -1.5
 2          35873.              271.            12.6            -5  
 3          35873.              245.             9.9            -2.1
 4          35873.              277.            10.3            -4.8
 5          35873.              270.             8.1            -4.9
 6          35873.              284.            16.3            -2.6
 7          35873.              271.             9              -3.4
 8          35873.              287.             8.1            -4.8
 9          35873.              272.            15.8            -0.9
10          35873.              263.             7.3            -2.6
# ℹ 688 more rows
# ℹ 68 more variables: mean_vp.pa_Jan <dbl>, sum_prcp.mm_Jan <dbl>,
#   mean_dayl.s_Feb <dbl>, mean_srad.wm2_Feb <dbl>, mean_tmax.c_Feb <dbl>,
#   mean_tmin.c_Feb <dbl>, mean_vp.pa_Feb <dbl>, sum_prcp.mm_Feb <dbl>,
#   mean_dayl.s_Mar <dbl>, mean_srad.wm2_Mar <dbl>, mean_tmax.c_Mar <dbl>,
#   mean_tmin.c_Mar <dbl>, mean_vp.pa_Mar <dbl>, sum_prcp.mm_Mar <dbl>,
#   mean_dayl.s_Apr <dbl>, mean_srad.wm2_Apr <dbl>, mean_tmax.c_Apr <dbl>, …
…
k-means does not normalize our data for us like PCA did, so we will need to do that before running the model.

# normalizing the data
weather_norm <- weather_n %>% 
  mutate(across(everything(), ~scale(.x)))

weather_norm

# A tibble: 698 × 72
   mean_dayl.s_Jan[,1] mean_srad.wm2_Jan[,1] mean_tmax.c_Jan[,1]
                 <dbl>                 <dbl>               <dbl>
 1              -0.699               -0.962               -0.904
 2              -0.699                0.0654              -0.313
 3              -0.699               -0.854               -0.978
 4              -0.699                0.293               -0.880
 5              -0.699                0.0365              -1.42 
 6              -0.699                0.527                0.598
 7              -0.699                0.0834              -1.20 
 8              -0.699                0.631               -1.42 
 9              -0.699                0.0870               0.475
10              -0.699               -0.230               -1.62 
# ℹ 688 more rows
# ℹ 69 more variables: mean_tmin.c_Jan <dbl[,1]>, mean_vp.pa_Jan <dbl[,1]>,
#   sum_prcp.mm_Jan <dbl[,1]>, mean_dayl.s_Feb <dbl[,1]>,
#   mean_srad.wm2_Feb <dbl[,1]>, mean_tmax.c_Feb <dbl[,1]>,
#   mean_tmin.c_Feb <dbl[,1]>, mean_vp.pa_Feb <dbl[,1]>,
#   sum_prcp.mm_Feb <dbl[,1]>, mean_dayl.s_Mar <dbl[,1]>,
#   mean_srad.wm2_Mar <dbl[,1]>, mean_tmax.c_Mar <dbl[,1]>, …
…
